Using readabs
…
OK! Theres a bunch of data in here. We can see that the series column contains a first part, like Participation rate or Unemployment rate, and a second part, which is Persons, Males, or Females. You will often want to filter using one or both of these components separately - and sometimes there will be more than two components.

The separate_series function helps you by separating the series column into multiple components and removing extraneous symbols.

lfs_1_sep <- lfs_1 %>% 
  separate_series()

lfs_1_sep
#> # A tibble: 56,772 x 14
#>    table_no sheet_no table_title date       series series_1 series_2 value
#>    <chr>    <chr>    <chr>       <date>     <chr>  <chr>    <chr>    <dbl>
#>  1 6202001  Data1    Table 1. L 1978-02-01 Emplo Employe Persons  6008.
#>  2 6202001  Data1    Table 1. L 1978-03-01 Emplo Employe Persons  6015.
#>  3 6202001  Data1    Table 1. L 1978-04-01 Emplo Employe Persons  6022.
#>  4 6202001  Data1    Table 1. L 1978-05-01 Emplo Employe Persons  6027.
#>  5 6202001  Data1    Table 1. L 1978-06-01 Emplo Employe Persons  6031.
#>  6 6202001  Data1    Table 1. L 1978-07-01 Emplo Employe Persons  6033.
#>  7 6202001  Data1    Table 1. L 1978-08-01 Emplo Employe Persons  6033.
#>  8 6202001  Data1    Table 1. L 1978-09-01 Emplo Employe Persons  6033.
#>  9 6202001  Data1    Table 1. L 1978-10-01 Emplo Employe Persons  6035.
#> 10 6202001  Data1    Table 1. L 1978-11-01 Emplo Employe Persons  6040.
#> #  with 56,762 more rows, and 6 more variables: series_type <chr>,
#> #   data_type <chr>, collection_month <chr>, frequency <chr>,
#> #   series_id <chr>, unit <chr>
…
